id;username;nama;password;role;saldo
1;Chikaramanik_025;Nicholas Chikara Manik;chikarasukabinomo;admin;100000
2;Jeremyadhar_268;Jeremya Dharmawan Raharjo;jerrysuhubinomo;admin;100000
3;Gabrielmoan_403;Gabriel P. Halomoan Panjaitan;rielmasterbinomo;admin;100000
4;Wikanbudi_412;Wikan Priambudi;wikanownerbinomo;admin;100000
